# type name weight(kg) radius(m) x(m) y(m) speed_x(m/s) speed_y(m/s)

star Sun 1.9885e30 6.9551e8 0 0 0 0
planet Earth 5.9726e24 6.371e6 1.0e11 0 0 29783
satellite Moon 7.4377e22 1.73710e6 3.84399e8 0 0 1023 Earth